/* XPM */
static char * title_active_xpm[] = {
"4 29 2 1",
"       c None",
".      c #C0C0FF s active_color_1",
"....",
"....",
"....",
"....",
"....",
"....",
"....",
"....",
"....",
"....",
"....",
"....",
"....",
"....",
"....",
"....",
"....",
"....",
"....",
"....",
"....",
"....",
"....",
"....",
"....",
"....",
"....",
"....",
"...."};
